Data Wrangling with dplyr and tidyr – R for Social Scientists
…
# to select columns throughout the dataframe
select(interviews, village, no_membrs, months_lack_food)
# to select a series of connected columns
select(interviews, village:respondent_wall_type)

To choose rows based on a specific criteria, we can use the filter() function. 
The arguments after the dataframe are the condition(s) we want for our final 
dataframe to adhere to (e.g. village name is Chirodzo). We can chain a series of 
conditions together using commas between each condition.

# one condition
filter(interviews, village == "Chirodzo")

# A tibble: 39 x 14
   key_ID village interview_date      no_membrs years_liv respondent_wall… rooms
    <dbl> <chr>   <dttm>                  <dbl>     <dbl> <chr>            <dbl>
 1      8 Chirod… 2016-11-16 00:00:00        12        70 burntbricks          3
 2      9 Chirod… 2016-11-16 00:00:00         8         6 burntbricks          1
 3     10 Chirod… 2016-12-16 00:00:00        12        23 burntbricks          5
 4     34 Chirod… 2016-11-17 00:00:00         8        18 burntbricks          3
 5     35 Chirod… 2016-11-17 00:00:00         5        45 muddaub              1
 6     36 Chirod… 2016-11-17 00:00:00         6        23 sunbricks            1
 7     37 Chirod… 2016-11-17 00:00:00         3         8 burntbricks          1
 8     43 Chirod… 2016-11-17 00:00:00         7        29 muddaub              1
 9     44 Chirod… 2016-11-17 00:00:00         2         6 muddaub              1
10     45 Chirod… 2016-11-17 00:00:00         9         7 muddaub              1
# … with 29 more rows, and 7 more variables: memb_assoc <chr>,
#   affect_conflicts <chr>, liv_count <dbl>, items_owned <chr>, no_meals <dbl>,
#   months_lack_food <chr>, instanceID <chr>
…
The last option, pipes, are a recent addition to R. Pipes let you take the
output of one function and send it directly to the next, which is useful when
you need to do many things to the same dataset. Pipes in R look like %>% and
are made available via the magrittr package, installed automatically with
dplyr. If you use RStudio, you can type the pipe with Ctrl

  Shift + M if you have a PC or Cmd +
Shift + M if you have a Mac.

interviews %>%
    filter(village == "Chirodzo") %>%
    select(village:respondent_wall_type)

# A tibble: 39 x 5
   village  interview_date      no_membrs years_liv respondent_wall_type
   <chr>    <dttm>                  <dbl>     <dbl> <chr>               
 1 Chirodzo 2016-11-16 00:00:00        12        70 burntbricks         
 2 Chirodzo 2016-11-16 00:00:00         8         6 burntbricks         
 3 Chirodzo 2016-12-16 00:00:00        12        23 burntbricks         
 4 Chirodzo 2016-11-17 00:00:00         8        18 burntbricks         
 5 Chirodzo 2016-11-17 00:00:00         5        45 muddaub             
 6 Chirodzo 2016-11-17 00:00:00         6        23 sunbricks           
 7 Chirodzo 2016-11-17 00:00:00         3         8 burntbricks         
 8 Chirodzo 2016-11-17 00:00:00         7        29 muddaub             
 9 Chirodzo 2016-11-17 00:00:00         2         6 muddaub             
10 Chirodzo 2016-11-17 00:00:00         9         7 muddaub             
# … with 29 more rows
…
If we want to create a new object with this smaller version of the data, we
can assign it a new name:

interviews_god <- interviews %>%
    filter(village == "Chirodzo") %>%
    select(village:respondent_wall_type)

interviews_god

# A tibble: 39 x 5
   village  interview_date      no_membrs years_liv respondent_wall_type
   <chr>    <dttm>                  <dbl>     <dbl> <chr>               
 1 Chirodzo 2016-11-16 00:00:00        12        70 burntbricks         
 2 Chirodzo 2016-11-16 00:00:00         8         6 burntbricks         
 3 Chirodzo 2016-12-16 00:00:00        12        23 burntbricks         
 4 Chirodzo 2016-11-17 00:00:00         8        18 burntbricks         
 5 Chirodzo 2016-11-17 00:00:00         5        45 muddaub             
 6 Chirodzo 2016-11-17 00:00:00         6        23 sunbricks           
 7 Chirodzo 2016-11-17 00:00:00         3         8 burntbricks         
 8 Chirodzo 2016-11-17 00:00:00         7        29 muddaub             
 9 Chirodzo 2016-11-17 00:00:00         2         6 muddaub             
10 Chirodzo 2016-11-17 00:00:00         9         7 muddaub             
# … with 29 more rows
…
  Exercise

  Using pipes, subset the interviews data to include interviews
where respondents were members of an irrigation association
(memb_assoc) and retain only the columns affect_conflicts,
liv_count, and no_meals.

    Solution

interviews %>%
    filter(memb_assoc == "yes") %>%
    select(affect_conflicts, liv_count, no_meals)

# A tibble: 33 x 3
   affect_conflicts liv_count no_meals
   <chr>                <dbl>    <dbl>
 1 once                     3        2
 2 never                    2        2
 3 never                    2        3
 4 once                     3        2
 5 frequently               1        3
 6 more_once                5        2
 7 more_once                3        2
 8 more_once                2        3
 9 once                     3        3
10 never                    3        3
# … with 23 more rows

Mutate

Frequently you’ll want to create new columns based on the values in existing
columns, for example to do unit conversions, or to find the ratio of values in
two columns. For this we’ll use mutate().

We might be interested in the ratio of number of household members
to rooms used for sleeping (i.e. avg number of people per room):

interviews %>%
    mutate(people_per_room = no_membrs / rooms)

# A tibble: 131 x 15
   key_ID village interview_date      no_membrs years_liv respondent_wall… rooms
    <dbl> <chr>   <dttm>                  <dbl>     <dbl> <chr>            <dbl>
 1      1 God     2016-11-17 00:00:00         3         4 muddaub              1
 2      1 God     2016-11-17 00:00:00         7         9 muddaub              1
 3      3 God     2016-11-17 00:00:00        10        15 burntbricks          1
 4      4 God     2016-11-17 00:00:00         7         6 burntbricks          1
 5      5 God     2016-11-17 00:00:00         7        40 burntbricks          1
 6      6 God     2016-11-17 00:00:00         3         3 muddaub              1
 7      7 God     2016-11-17 00:00:00         6        38 muddaub              1
 8      8 Chirod… 2016-11-16 00:00:00        12        70 burntbricks          3
 9      9 Chirod… 2016-11-16 00:00:00         8         6 burntbricks          1
10     10 Chirod… 2016-12-16 00:00:00        12        23 burntbricks          5
# … with 121 more rows, and 8 more variables: memb_assoc <chr>,
#   affect_conflicts <chr>, liv_count <dbl>, items_owned <chr>, no_meals <dbl>,
#   months_lack_food <chr>, instanceID <chr>, people_per_room <dbl>

We may be interested in investigating whether being a member of an
irrigation association had any effect on the ratio of household members
to rooms. To look at this relationship, we will first remove
data from our dataset where the respondent didn’t answer the
question of whether they were a member of an irrigation association.
These cases are recorded as “NULL” in the dataset.

To remove these cases, we could insert a filter() in the chain:

interviews %>%
    filter(!is.na(memb_assoc)) %>%
    mutate(people_per_room = no_membrs / rooms)

# A tibble: 92 x 15
   key_ID village interview_date      no_membrs years_liv respondent_wall… rooms
    <dbl> <chr>   <dttm>                  <dbl>     <dbl> <chr>            <dbl>
 1      1 God     2016-11-17 00:00:00         7         9 muddaub              1
 2      7 God     2016-11-17 00:00:00         6        38 muddaub              1
 3      8 Chirod… 2016-11-16 00:00:00        12        70 burntbricks          3
 4      9 Chirod… 2016-11-16 00:00:00         8         6 burntbricks          1
 5     10 Chirod… 2016-12-16 00:00:00        12        23 burntbricks          5
 6     12 God     2016-11-21 00:00:00         7        20 burntbricks          3
 7     13 God     2016-11-21 00:00:00         6         8 burntbricks          1
 8     15 God     2016-11-21 00:00:00         5        30 sunbricks            2
 9     21 God     2016-11-21 00:00:00         8        20 burntbricks          1
10     24 Ruaca   2016-11-21 00:00:00         6         4 burntbricks          2
# … with 82 more rows, and 8 more variables: memb_assoc <chr>,
#   affect_conflicts <chr>, liv_count <dbl>, items_owned <chr>, no_meals <dbl>,
#   months_lack_food <chr>, instanceID <chr>, people_per_room <dbl>
…
In the interviews data, each row contains the values of variables associated
with each record collected (each interview in the villages), where it is stated 
that the the key_ID was “added to provide a unique Id for each observation” 
and the instance_ID “does this as well but it is not as convenient to use.”

However, with some inspection, we notice that there are more than one row in the
dataset with the same key_ID (as seen below). However, the instanceIDs
associated with these duplicate key_IDs are not the same. Thus, we should
think of instanceID as the unique identifier for observations!

interviews %>% 
  select(key_ID, village, interview_date, instanceID) 

# A tibble: 131 x 4
   key_ID village  interview_date      instanceID                               
    <dbl> <chr>    <dttm>              <chr>                                    
 1      1 God      2016-11-17 00:00:00 uuid:ec241f2c-0609-46ed-b5e8-fe575f6cefef
 2      1 God      2016-11-17 00:00:00 uuid:099de9c9-3e5e-427b-8452-26250e840d6e
 3      3 God      2016-11-17 00:00:00 uuid:193d7daf-9582-409b-bf09-027dd36f9007
 4      4 God      2016-11-17 00:00:00 uuid:148d1105-778a-4755-aa71-281eadd4a973
 5      5 God      2016-11-17 00:00:00 uuid:2c867811-9696-4966-9866-f35c3e97d02d
 6      6 God      2016-11-17 00:00:00 uuid:daa56c91-c8e3-44c3-a663-af6a49a2ca70
 7      7 God      2016-11-17 00:00:00 uuid:ae20a58d-56f4-43d7-bafa-e7963d850844
 8      8 Chirodzo 2016-11-16 00:00:00 uuid:d6cee930-7be1-4fd9-88c0-82a08f90fb5a
 9      9 Chirodzo 2016-11-16 00:00:00 uuid:846103d2-b1db-4055-b502-9cd510bb7b37
10     10 Chirodzo 2016-12-16 00:00:00 uuid:8f4e49bc-da81-4356-ae34-e0d794a23721
# … with 121 more rows
…
